<?xml version="1.0" encoding="utf-8"?>
<!-- Generator: Adobe Illustrator 22.1.0, SVG Export Plug-In . SVG Version: 6.00 Build 0)  -->
<svg version="1.1" id="Layer_1" xmlns="http://www.w3.org/2000/svg" xmlns:xlink="http://www.w3.org/1999/xlink" x="0px" y="0px"
	 viewBox="0 0 370 112" style="enable-background:new 0 0 370 112;" xml:space="preserve">
<style type="text/css">
	.st0{fill:#FFFFFF;}
	.st1{fill:url(#SVGID_1_);}
	.st2{fill:url(#SVGID_2_);}
	.st3{fill:url(#SVGID_3_);}
	.st4{fill:url(#SVGID_4_);}
	.st5{fill:url(#SVGID_5_);}
</style>
<g>
	<g>
		<path class="st0" d="M102.6,15.2h3.3h5.8c3.7,0,6.9,0.9,9.1,2.6s3.3,4.1,3.3,6.9c0,2.8-1.1,5-3.3,6.7l-0.7,0.4
			c0.9,0.4,1.7,0.9,2.4,1.5c2.6,1.9,3.7,4.3,3.7,7.4c0,3.3-1.3,6.1-3.7,8c-2.4,2-5.8,3-9.9,3h-6.9h-3.3V15.2H102.6z M109.3,29.5h2.4
			c1.9,0,3.3-0.4,4.3-0.9c0.9-0.7,1.5-1.7,1.5-3s-0.6-2.2-1.5-3c-0.9-0.7-2.4-0.9-4.3-0.9h-2.4C109.3,21.7,109.3,29.5,109.3,29.5z
			 M109.3,45.5h3.5c2.2,0,3.9-0.4,5-1.3c1.1-0.7,1.7-2,1.7-3.5c0-1.7-0.6-2.8-1.9-3.7c-1.1-0.7-3-1.3-5.4-1.3h-3
			C109.3,35.7,109.3,45.5,109.3,45.5z"/>
		<path class="st0" d="M135,46.8c-3.7-3.7-5.6-8.2-5.6-13.4c0-5.2,1.9-9.7,5.6-13.4c3.7-3.7,8.2-5.6,13.6-5.6
			c5.2,0,9.9,1.9,13.6,5.6c3.7,3.7,5.6,8.2,5.6,13.4c0,5.2-1.9,9.7-5.6,13.4c-3.7,3.7-8.2,5.6-13.6,5.6
			C143.1,52.4,138.5,50.5,135,46.8z M157.1,42.5c2.4-2.4,3.5-5.4,3.5-8.9s-1.1-6.5-3.5-8.9c-2.4-2.4-5.2-3.7-8.7-3.7
			c-3.3,0-6.3,1.3-8.7,3.7c-2.4,2.4-3.5,5.4-3.5,8.9s1.1,6.5,3.5,8.9s5.2,3.7,8.7,3.7C151.7,46.1,154.7,44.9,157.1,42.5z"/>
		<path class="st0" d="M176.2,46.8c-3.7-3.7-5.6-8.2-5.6-13.4c0-5.2,1.9-9.7,5.6-13.4s8.2-5.6,13.6-5.6c5.2,0,9.9,1.9,13.6,5.6
			c3.7,3.7,5.6,8.2,5.6,13.4c0,5.2-1.9,9.7-5.6,13.4c-3.7,3.7-8.2,5.6-13.6,5.6S179.9,50.5,176.2,46.8z M198.5,42.5
			c2.4-2.4,3.5-5.4,3.5-8.9s-1.1-6.5-3.5-8.9c-2.4-2.4-5.2-3.7-8.7-3.7c-3.3,0-6.3,1.3-8.7,3.7c-2.4,2.4-3.5,5.4-3.5,8.9
			s1.1,6.5,3.5,8.9c2.4,2.4,5.2,3.7,8.7,3.7C193.1,46.1,196.1,44.9,198.5,42.5z"/>
		<path class="st0" d="M221.6,51.6h-3.3h-3.3V15.2h3.3h3.3v16.2l11.5-16.2h3.9h3.9L227.1,33l13.8,18.6H237h-3.9l-11.5-16l0,0
			L221.6,51.6L221.6,51.6z"/>
		<path class="st0" d="M279.2,41c-1.3,3.3-3.5,5.9-6.7,8c-3.2,2-6.5,3-10.4,3c-5.2,0-9.7-1.9-13.4-5.6c-3.7-3.7-5.6-8.2-5.6-13.4
			s1.9-9.7,5.6-13.4s8.2-5.6,13.4-5.6c3.9,0,7.2,0.9,10.4,3c3.2,2,5.4,4.6,6.9,8.2h-7.6c-1.1-1.5-2.6-2.6-4.3-3.5
			c-1.9-0.9-3.5-1.3-5.4-1.3c-3.2,0-5.9,1.3-8.4,3.7c-2.4,2.4-3.5,5.4-3.5,8.7c0,3.5,1.1,6.7,3.5,9.1c2.4,2.4,5.2,3.7,8.7,3.7
			c1.7,0,3.3-0.4,5-1.3c1.7-0.9,3-2,4.1-3.3L279.2,41L279.2,41z"/>
		<path class="st0" d="M295.7,14.8h2.6h2.6l15.2,36.4h-3.7h-3.7l-3.5-9.5h-13.8l-3.5,9.5h-3.7h-3.7L295.7,14.8z M293.7,35.5h8.9
			l-4.5-11.7l0,0L293.7,35.5z"/>
		<path class="st0" d="M319.5,51.3V14.8h18.6V18v3.2h-11.9v8.9h11.3v3.2v3.2h-11.3v14.9h-3.3L319.5,51.3L319.5,51.3z"/>
		<path class="st0" d="M343.1,51.3V14.8h19.5V18v3.2h-12.8v8.9h12.3v3.2v3.2h-12.3v8.5h12.8v3.2v3.2L343.1,51.3L343.1,51.3z"/>
	</g>
	
		<linearGradient id="SVGID_1_" gradientUnits="userSpaceOnUse" x1="-4382.0566" y1="680.5024" x2="-4382.0566" y2="660.1069" gradientTransform="matrix(4.8309 0 0 -4.8309 21216.4219 3301.551)">
		<stop  offset="0" style="stop-color:#C129C1"/>
		<stop  offset="1" style="stop-color:#9212DD"/>
	</linearGradient>
	<polygon class="st1" points="47,27.5 5,3.5 5,13.7 47,37.7 89.2,13.7 89.2,3.5 	"/>
	<linearGradient id="SVGID_2_" gradientUnits="userSpaceOnUse" x1="16.384" y1="31.3755" x2="31.995" y2="31.3755">
		<stop  offset="0" style="stop-color:#C129C1"/>
		<stop  offset="1" style="stop-color:#9212DD"/>
	</linearGradient>
	<path class="st2" d="M17.3,25.1c-0.6,1.1-0.9,2.6-0.9,3.9c0,4.8,3.7,8.7,8.4,8.7c3,0,5.8-1.7,7.2-4.3L17.3,25.1z"/>
	
		<linearGradient id="SVGID_3_" gradientUnits="userSpaceOnUse" x1="-4382.105" y1="680.5029" x2="-4382.105" y2="660.1051" gradientTransform="matrix(4.8309 0 0 -4.8309 21216.4219 3301.551)">
		<stop  offset="0" style="stop-color:#C129C1"/>
		<stop  offset="1" style="stop-color:#9212DD"/>
	</linearGradient>
	<path class="st3" d="M87.4,19.3l-6.9,3.9c0.7,1.9,1.1,4.5,1.1,6.3c0,7.2-5.6,13-12.5,13c-4.3,0-8-3.3-10.2-6.7L47,42.2l-11.9-6.3
		c-2.2,3.5-5.9,6.7-10.2,6.7c-6.9,0-12.5-5.8-12.5-13c0-1.9,0.4-4.5,1.1-6.3l-6.9-3.9c-1.5,3-2.2,6.3-2.2,9.9
		c0,12.1,9.5,21.9,21,21.9c4.5,0,8.7-1.5,12.1-4.1l9.3,5.2l9.3-5.2c3.3,2.6,7.6,4.1,12.1,4.1c11.7,0,21-9.8,21-21.9
		C89.6,25.6,88.9,22.3,87.4,19.3z"/>
	<linearGradient id="SVGID_4_" gradientUnits="userSpaceOnUse" x1="63.588" y1="31.3755" x2="79.199" y2="31.3755">
		<stop  offset="0" style="stop-color:#C129C1"/>
		<stop  offset="1" style="stop-color:#9212DD"/>
	</linearGradient>
	<path class="st4" d="M78.3,25.1c0.6,1.1,0.9,2.6,0.9,3.9c0,4.8-3.7,8.7-8.4,8.7c-3,0-5.8-1.7-7.2-4.3L78.3,25.1z"/>
	
		<linearGradient id="SVGID_5_" gradientUnits="userSpaceOnUse" x1="-4382.0762" y1="680.5024" x2="-4382.0762" y2="660.1066" gradientTransform="matrix(4.8309 0 0 -4.8309 21216.4219 3301.551)">
		<stop  offset="0" style="stop-color:#C129C1"/>
		<stop  offset="1" style="stop-color:#9212DD"/>
	</linearGradient>
	<path class="st5" d="M56.5,51.3L47,56.7l-9.5-5.4C23.6,59.6,9.7,52.2,5,43.1v41.4l42,24l42-24V43.1C84.6,52.2,70.6,59.6,56.5,51.3z
		"/>
	<g>
		<path class="st0" d="M107.1,84.3h-3.5V67.8h7.2c1.9,0,3.2,0.6,4.3,1.7c1.1,1.1,1.7,2.4,1.7,4.1c0,1.1-0.4,2.2-0.9,3.2
			c-0.6,0.9-1.5,1.7-2.4,2l4.3,5.6h-4.3l-3.9-5.2h-2.4V84.3z M107.1,76.2h3.7c0.6,0,1.1-0.2,1.7-0.7c0.6-0.4,0.7-1.1,0.7-1.9
			c0-0.2,0-0.6,0-0.7c0-0.2-0.2-0.6-0.4-0.7c-0.2-0.4-0.4-0.6-0.7-0.7c-0.4-0.2-0.7-0.4-1.3-0.4h-3.7L107.1,76.2L107.1,76.2z"/>
		<path class="st0" d="M125.5,84.7c-0.6,0-1.1,0-1.7-0.2c-0.6-0.2-1.1-0.4-1.9-0.6c-0.6-0.4-1.1-0.7-1.7-1.1
			c-0.6-0.6-0.9-1.1-1.1-1.9c-0.4-0.9-0.6-1.9-0.6-2.8c0-0.9,0.2-1.9,0.6-2.6c0.4-0.7,0.7-1.5,1.3-1.9c0.6-0.6,1.1-0.9,1.7-1.1
			c0.6-0.4,1.3-0.6,1.9-0.6c0.6-0.2,1.1-0.2,1.7-0.2c1.7,0,3.2,0.6,4.5,1.7c1.3,1.1,1.9,2.6,2,4.5v1.5h-9.9c0,0.6,0.4,0.9,0.6,1.1
			c0.4,0.4,0.6,0.6,1.1,0.7c0.4,0.2,0.7,0.2,0.9,0.4c0.2,0,0.6,0,0.7,0c1.3,0,2.2-0.6,3.2-1.5l2.6,1.5
			C129.7,83.6,127.9,84.7,125.5,84.7z M125.5,74.7c-0.9,0-1.7,0.2-2.2,0.7c-0.6,0.4-0.9,0.9-0.9,1.7h6.1c0-0.6-0.4-1.1-0.9-1.7
			C126.8,74.9,126.2,74.7,125.5,74.7z"/>
		<path class="st0" d="M144.1,84.3V83c-0.4,0.4-0.7,0.7-1.5,1.1c-0.7,0.4-1.5,0.4-2.2,0.4c-1.9,0-3.3-0.6-4.5-1.9
			c-1.1-1.3-1.7-2.8-1.7-4.6c0-1.9,0.6-3.3,1.7-4.6c1.1-1.3,2.6-1.9,4.5-1.9c0.9,0,1.7,0.2,2.2,0.4c0.7,0.4,1.1,0.7,1.5,1.1v-1.3
			h3.3v12.5h-3.3V84.3z M144.1,78c0-1.1-0.4-1.9-0.9-2.6c-0.6-0.7-1.5-0.9-2.4-0.9c-1.1,0-1.9,0.4-2.4,0.9c-0.6,0.7-0.9,1.5-0.9,2.6
			c0,0.9,0.4,1.9,0.9,2.4c0.6,0.7,1.5,0.9,2.4,0.9c1.1,0,1.9-0.4,2.4-0.9C143.9,80.1,144.1,79.1,144.1,78z"/>
		<path class="st0" d="M160,84.3V83c-0.4,0.4-0.7,0.7-1.5,1.1c-0.7,0.4-1.5,0.4-2.2,0.4c-1.9,0-3.3-0.6-4.5-1.9
			c-1.1-1.3-1.7-2.8-1.7-4.6c0-1.9,0.6-3.3,1.7-4.6c1.1-1.3,2.6-1.9,4.5-1.9c0.9,0,1.7,0.2,2.2,0.4c0.7,0.4,1.1,0.7,1.5,1.1v-5.9
			h3.3v17.1H160V84.3z M160.2,78c0-1.1-0.4-1.9-0.9-2.6c-0.6-0.7-1.5-0.9-2.4-0.9c-1.1,0-1.9,0.4-2.4,0.9c-0.6,0.7-0.9,1.5-0.9,2.6
			c0,0.9,0.4,1.9,0.9,2.4c0.6,0.7,1.5,0.9,2.4,0.9c1.1,0,1.9-0.4,2.4-0.9C159.9,80.1,160.2,79.1,160.2,78z"/>
		<path class="st0" d="M190.7,81.2v3.2h-12.3V67.8h3.5v13.4C182,81.2,190.7,81.2,190.7,81.2z"/>
		<path class="st0" d="M198.9,84.7c-0.6,0-1.1,0-1.7-0.2c-0.6-0.2-1.1-0.4-1.9-0.6c-0.6-0.4-1.1-0.7-1.7-1.1
			c-0.6-0.6-0.9-1.1-1.1-1.9c-0.4-0.7-0.6-1.7-0.6-2.6c0-0.9,0.2-1.9,0.6-2.6c0.4-0.7,0.7-1.5,1.3-1.9c0.6-0.6,1.1-0.9,1.7-1.1
			c0.6-0.4,1.3-0.6,1.9-0.6c0.6-0.2,1.1-0.2,1.7-0.2c1.7,0,3.2,0.6,4.5,1.7c1.3,1.1,1.9,2.6,2,4.5v1.5h-9.9c0,0.6,0.4,0.9,0.6,1.1
			c0.4,0.4,0.6,0.6,1.1,0.7c0.4,0.2,0.7,0.2,0.9,0.4c0.2,0,0.6,0,0.7,0c1.3,0,2.2-0.6,3.2-1.5l2.6,1.5
			C203.2,83.6,201.3,84.7,198.9,84.7z M198.9,74.7c-0.9,0-1.7,0.2-2.2,0.7c-0.6,0.4-0.9,0.9-0.9,1.7h6.1c0-0.6-0.4-1.1-0.9-1.7
			C200.4,74.9,199.6,74.7,198.9,74.7z"/>
		<path class="st0" d="M217.5,84.3V83c-0.4,0.4-0.7,0.7-1.5,1.1c-0.7,0.4-1.5,0.4-2.2,0.4c-1.9,0-3.3-0.6-4.5-1.9
			c-1.1-1.3-1.7-2.8-1.7-4.6c0-1.9,0.6-3.3,1.7-4.6c1.1-1.3,2.6-1.9,4.5-1.9c0.9,0,1.7,0.2,2.2,0.4c0.7,0.4,1.1,0.7,1.5,1.1v-1.3
			h3.3v12.5h-3.3V84.3z M217.7,78c0-1.1-0.4-1.9-0.9-2.6c-0.6-0.7-1.5-0.9-2.4-0.9c-1.1,0-1.9,0.4-2.4,0.9c-0.6,0.7-0.9,1.5-0.9,2.6
			c0,0.9,0.4,1.9,0.9,2.4c0.6,0.7,1.5,0.9,2.4,0.9c1.1,0,1.9-0.4,2.4-0.9C217.3,80.1,217.7,79.1,217.7,78z"/>
		<path class="st0" d="M231.6,75c-0.2,0-0.6,0-0.7,0c-0.4,0-0.6,0.2-1.1,0.2c-0.4,0.2-0.7,0.4-1.1,0.6s-0.6,0.6-0.9,1.1
			c-0.2,0.6-0.4,1.1-0.4,1.9v5.4H224V71.7h3.3v1.7c0.6-0.7,1.3-1.3,2-1.5c0.7-0.2,1.5-0.4,2.2-0.4L231.6,75L231.6,75z"/>
		<path class="st0" d="M240.3,71.7c3.3,0,4.8,1.9,4.8,5.4v7.2h-3.5v-7.2c0-1.7-0.7-2.4-2.4-2.4c-0.6,0-1.1,0.2-1.7,0.7
			c-0.6,0.6-0.7,1.3-0.7,2.6v6.5h-3.3V72.1h3.3v1.1c0.4-0.4,0.9-0.7,1.5-0.9C239.2,71.9,239.8,71.7,240.3,71.7z"/>
		<path class="st0" d="M261.3,84.3V67.8h6.9c2.4,0,4.5,0.7,5.9,2c1.7,1.5,2.6,3.5,2.6,6.1c0,2.6-0.9,4.6-2.6,6.1
			c-1.5,1.3-3.5,2-5.9,2h-6.9V84.3z M264.9,81.2h3.2c3.3,0,5-1.7,5-5.2c0-3.3-1.7-5.2-5-5.2h-3.2V81.2z"/>
		<path class="st0" d="M283.3,68.7c0,0.6-0.2,0.9-0.6,1.3c-0.4,0.4-0.7,0.6-1.3,0.6c-0.6,0-0.9-0.2-1.3-0.6
			c-0.4-0.4-0.6-0.7-0.6-1.3c0-0.6,0.2-0.9,0.6-1.3s0.7-0.6,1.3-0.6c0.6,0,0.9,0.2,1.3,0.6C283.1,67.8,283.3,68.4,283.3,68.7z
			 M279.7,84.3V71.9h3.3v12.4H279.7z"/>
		<path class="st0" d="M291.4,84.5c-2.2,0-4.3-0.6-5.8-1.9l1.7-2.4c1.3,0.9,2.6,1.3,4.1,1.3c0.6,0,0.9-0.2,1.3-0.4
			c0.4-0.2,0.6-0.6,0.6-0.7s0-0.4-0.2-0.4c-0.2-0.2-0.4-0.2-0.6-0.4c-0.2,0-0.4-0.2-0.6-0.2s-0.4,0-0.7-0.2c-0.2,0-0.4,0-0.6,0
			c-0.4,0-0.6-0.2-0.7-0.2s-0.6-0.2-0.9-0.2c-0.4-0.2-0.7-0.2-0.9-0.4c-0.2-0.2-0.6-0.2-0.7-0.6c-0.4-0.2-0.6-0.4-0.7-0.7
			c-0.2-0.2-0.4-0.6-0.4-0.9c-0.2-0.4-0.2-0.7-0.2-1.1c0-0.7,0.2-1.3,0.4-1.9c0.4-0.6,0.6-0.9,0.9-1.1c0.4-0.2,0.9-0.4,1.3-0.6
			c0.6-0.2,0.9-0.2,1.3-0.4c0.4,0,0.7,0,0.9,0c1.9,0,3.5,0.6,5.2,1.9l-1.7,2.2c-1.3-0.7-2.4-1.1-3.5-1.1c-0.4,0-0.7,0-1.1,0.2
			c-0.4,0.2-0.6,0.4-0.6,0.7c0,0.6,0.7,0.9,2.4,1.1c1.5,0.2,2.6,0.6,3.2,0.7c1.1,0.6,1.9,1.7,1.9,3.2c0,1.3-0.4,2.2-1.3,3
			C294.4,84.3,293.1,84.5,291.4,84.5z"/>
		<path class="st0" d="M305.4,84.7c-1.9,0-3.5-0.6-4.8-1.9c-1.3-1.3-2-2.8-2-4.6c0-1.9,0.7-3.3,2-4.6c1.3-1.3,3-1.9,4.8-1.9
			c1.3,0,2.4,0.4,3.5,0.9c1.1,0.6,1.9,1.5,2.6,2.6l-3,1.1c-0.7-1.3-1.7-1.9-3-1.9c-0.9,0-1.9,0.4-2.4,0.9c-0.6,0.7-0.9,1.5-0.9,2.4
			c0,0.9,0.4,1.9,0.9,2.4c0.6,0.7,1.5,0.9,2.4,0.9c1.3,0,2.4-0.6,3.2-1.9l2.8,1.1C310.2,83.4,308.3,84.7,305.4,84.7z"/>
		<path class="st0" d="M324.5,82.7c-1.3,1.3-3,1.9-4.8,1.9c-1.9,0-3.3-0.6-4.8-1.9c-1.3-1.3-2-2.8-2-4.6c0-1.9,0.7-3.3,2-4.6
			c1.3-1.3,3-1.9,4.8-1.9c1.9,0,3.5,0.6,4.8,1.9c1.3,1.3,2,2.8,2,4.6C326.6,79.9,326,81.4,324.5,82.7z M319.9,74.7
			c-0.9,0-1.7,0.4-2.4,0.9c-0.7,0.7-0.9,1.5-0.9,2.4c0,1.1,0.4,1.9,0.9,2.6c0.6,0.7,1.5,0.9,2.4,0.9s1.9-0.4,2.4-0.9
			c0.6-0.6,0.9-1.5,0.9-2.6c0-0.9-0.4-1.9-0.9-2.4C321.5,75,320.8,74.7,319.9,74.7z"/>
		<path class="st0" d="M334,84.9l-6.7-12.8h3.7l3,6.1l3-6.1h3.7L334,84.9z"/>
		<path class="st0" d="M347.9,84.7c-0.6,0-1.1,0-1.7-0.2c-0.6-0.2-1.1-0.4-1.9-0.6c-0.6-0.4-1.1-0.7-1.7-1.1
			c-0.6-0.6-0.9-1.1-1.1-1.9c-0.4-0.7-0.6-1.7-0.6-2.6c0-0.9,0.2-1.9,0.6-2.6c0.4-0.7,0.7-1.5,1.3-1.9c0.6-0.6,1.1-0.9,1.7-1.1
			c0.6-0.4,1.3-0.6,1.9-0.6c0.6-0.2,1.1-0.2,1.7-0.2c1.7,0,3.2,0.6,4.5,1.7c1.3,1.1,1.9,2.6,2,4.5v1.5h-9.9c0,0.6,0.4,0.9,0.6,1.1
			c0.4,0.4,0.6,0.6,1.1,0.7c0.6,0.2,0.7,0.2,0.9,0.4c0.2,0,0.6,0,0.7,0c1.3,0,2.2-0.6,3.2-1.5l2.6,1.5
			C352.4,83.6,350.5,84.7,347.9,84.7z M347.9,74.7c-0.9,0-1.7,0.2-2.2,0.7c-0.6,0.4-0.9,0.9-0.9,1.7h6.1c0-0.6-0.4-1.1-0.9-1.7
			C349.4,74.9,348.9,74.7,347.9,74.7z"/>
		<path class="st0" d="M364.8,75c-0.2,0-0.6,0-0.7,0c-0.4,0-0.6,0.2-1.1,0.2c-0.4,0.2-0.7,0.4-1.1,0.6c-0.4,0.2-0.6,0.6-0.9,1.1
			c-0.2,0.6-0.4,1.1-0.4,1.9v5.4h-3.3V71.7h3.3v1.7c0.6-0.7,1.3-1.3,2-1.5c0.7-0.2,1.5-0.4,2.2-0.4L364.8,75L364.8,75z"/>
	</g>
	<rect x="100.6" y="59.6" class="st0" width="265.9" height="0.9"/>
	<circle class="st0" cx="171.2" cy="76.5" r="2"/>
	<circle class="st0" cx="253.1" cy="76.5" r="2"/>
</g>
</svg>
