<svg xmlns="http://www.w3.org/2000/svg" width="403.8" height="176" viewBox="0 0 403.8 176">
  <g id="spark-logo" transform="translate(0 0)">
    <path id="Path_1" data-name="Path 1" d="M180.2,25.743C98.9,61.349,112.9,8.384,112.9,8.384,76.8,46.653,67.4,0,67.4,0c-21.2,59.869-64,47.245-64,47.245C40,93.7,0,108.692,0,108.692,51.9,113.821,36.1,165.8,36.1,165.8l1.1-.1,11.5-17.359s12.3-12.132,0-30.083-31.4-50.3,3.2-78.116c0,0,41.4-30.97,69.8,18.247,0,0,9,21.7-4.7,46.357s-15.9,19.332-14.6,36.4c0,0,16.1,11.54,17.7,15.387l-3.9-20.318c-4.9-20.318,48.2-43.694,48.2-43.694S149.2,94,145.6,76.637,180.2,25.743,180.2,25.743Z" transform="translate(0 0)" fill="#00c3ff"/>
    <path id="Path_2" data-name="Path 2" d="M94.1,154.2H61.5a1.155,1.155,0,0,1-1.2-1.2v-1.4a1.155,1.155,0,0,1,1.2-1.2H94.1a1.155,1.155,0,0,1,1.2,1.2V153A1.155,1.155,0,0,1,94.1,154.2Z" transform="translate(0 -2.3)" fill="#9d1ec6"/>
    <path id="Path_3" data-name="Path 3" d="M94.1,162.2H61.5a1.155,1.155,0,0,1-1.2-1.2v-1.4a1.155,1.155,0,0,1,1.2-1.2H94.1a1.155,1.155,0,0,1,1.2,1.2V161A1.155,1.155,0,0,1,94.1,162.2Z" transform="translate(0 -2.3)" fill="#9d1ec6"/>
    <path id="Path_4" data-name="Path 4" d="M94.1,170.3H61.5a1.155,1.155,0,0,1-1.2-1.2v-1.4a1.155,1.155,0,0,1,1.2-1.2H94.1a1.155,1.155,0,0,1,1.2,1.2v1.4A1.216,1.216,0,0,1,94.1,170.3Z" transform="translate(0 -2.3)" fill="#9d1ec6"/>
    <path id="Path_5" data-name="Path 5" d="M90.5,178.3H65.2a1.155,1.155,0,0,1-1.2-1.2v-1.4a1.155,1.155,0,0,1,1.2-1.2H90.5a1.155,1.155,0,0,1,1.2,1.2v1.4A1.155,1.155,0,0,1,90.5,178.3Z" transform="translate(0 -2.3)" fill="#884599"/>
    <g id="Group_2" data-name="Group 2" transform="translate(140 52.334)">
      <g id="Group_1" data-name="Group 1">
        <path id="Path_6" data-name="Path 6" d="M180.6,85.7c14.9,3.4,18.7,12.2,18.7,20.5,0,12.9-9.7,22.5-29.4,22.5-20.6,0-29.9-10.3-29.9-18.1a6.566,6.566,0,0,1,6.8-6.8c8.8,0,6.6,12.9,23,12.9,8.4,0,13.1-4.7,13.1-9.4,0-2.9-1.4-6.1-6.9-7.4l-18.4-4.7c-14.8-3.8-17.5-11.9-17.5-19.6,0-15.9,14.7-21.8,28.5-21.8,12.7,0,27.7,7.1,27.7,16.7,0,4.1-3.5,6.5-7.4,6.5-7.5,0-6.2-10.6-21.3-10.6-7.5,0-11.7,3.5-11.7,8.4,0,5,6,6.6,11.1,7.7Z" transform="translate(-140 -53.8)" fill="#9d1ec6"/>
        <path id="Path_7" data-name="Path 7" d="M205.4,80.7c0-4.5,2.1-6.8,6.6-6.8,4.3,0,6.6,2.4,6.6,6.8V83h.2c2.4-6.2,8.2-9.1,15.3-9.1,12.1,0,22.7,8.8,22.7,27.6,0,13.9-7,26.9-22.3,26.9-6.7,0-11.6-2.7-14.3-7.3H220v19.4c0,4.8-2.9,7.2-7.2,7.2-4.4,0-7.2-2.5-7.2-7.2V80.7Zm25.3,4.5c-8.4,0-11.6,7.5-11.6,15.8,0,7.4,2.8,16.2,11.6,16.1,9.2,0,11.5-9.3,11.5-16.1C242.2,92.4,238.4,85.4,230.7,85.2Z" transform="translate(-140 -53.8)" fill="#9d1ec6"/>
        <path id="Path_8" data-name="Path 8" d="M310.2,113.1c0,6.1,1.5,7.4,1.5,9.7,0,3.3-3.1,5.6-6.6,5.6-6.3,0-8.3-4-8.5-8.4-5.7,6.3-12.2,8.4-19.9,8.4-8.2,0-16.4-5.7-16.4-14.8,0-12,9.1-15.4,20.3-16.7l8.8-1c3.5-.4,6.3-1.2,6.3-5.4s-4.3-6-9.1-6c-10.7,0-11,7.9-16.8,7.9-3.7,0-6.2-2.6-6.2-5.6,0-5.8,8.1-13.1,23-13.1,13.9,0,23.5,4.5,23.5,14.9v24.5Zm-14.5-10.5c-1.6,1.5-4.6,2-6.3,2.3l-5.3.8c-6.1.9-9.3,2.8-9.3,7.1,0,3.3,3.1,6,8,6,7.9,0,12.8-5.2,12.8-10.5v-5.7h.1Z" transform="translate(-140 -53.8)" fill="#9d1ec6"/>
        <path id="Path_9" data-name="Path 9" d="M319.6,80.6c0-4.4,2.9-6.8,6.6-6.8s6.6,2.4,6.6,6.8v5.6h.2c1.7-6.1,5-12.3,12-12.3,4.6,0,7.9,3,7.9,7,0,5.4-3.6,7.2-7.1,7.2h-2.6c-5.9,0-9,4.1-9,16.1v16.9c0,3.9-1.6,7.2-7.2,7.2-5.7,0-7.2-3.4-7.2-7.2V80.6Z" transform="translate(-140 -53.8)" fill="#9d1ec6"/>
        <path id="Path_10" data-name="Path 10" d="M355.2,61.5c0-4.8,2.9-7.2,7.2-7.2s7.2,2.5,7.2,7.2v33l16.1-17.9a7.818,7.818,0,0,1,5.6-2.8c3.3,0,6.8,2.9,6.8,6.6,0,2.6-.9,3.4-2.2,4.8L385.2,96.4l15.1,20.3a7.968,7.968,0,0,1,1.5,4.7,6.98,6.98,0,0,1-6.8,7,7.5,7.5,0,0,1-6.6-3.4l-13.7-19.4-5.1,4.5v11c0,4.8-2.9,7.2-7.2,7.2s-7.2-2.5-7.2-7.2V61.5Z" transform="translate(-140 -53.8)" fill="#9d1ec6"/>
      </g>
    </g>
    <g id="Group_4" data-name="Group 4" transform="translate(227.1 137.5)">
      <g id="Group_3" data-name="Group 3">
        <path id="Path_11" data-name="Path 11" d="M227.1,142.2c0-1.6.8-2.1,2.1-2.1h8.1c1.1,0,1.9.3,1.9,1.5s-.8,1.5-1.9,1.5h-6.5v3.8h5.5c1,0,1.7.3,1.7,1.4s-.8,1.4-1.7,1.4h-5.5v5a1.8,1.8,0,0,1-3.6,0V142.2h-.1Z" transform="translate(-227.1 -139.8)" fill="#fff"/>
        <path id="Path_12" data-name="Path 12" d="M239.9,141.4a1.427,1.427,0,0,1,1.6-1.6,1.472,1.472,0,0,1,1.6,1.6v13.4a1.427,1.427,0,0,1-1.6,1.6,1.472,1.472,0,0,1-1.6-1.6Z" transform="translate(-227.1 -139.8)" fill="#fff"/>
        <path id="Path_13" data-name="Path 13" d="M255.9,153a12.316,12.316,0,0,0,.3,2.2,1.442,1.442,0,0,1-1.5,1.3,1.731,1.731,0,0,1-1.9-1.9,5.636,5.636,0,0,1-4.5,1.9,3.488,3.488,0,0,1-3.7-3.3c0-2.7,2.1-3.5,4.6-3.8l2-.2c.8-.1,1.4-.3,1.4-1.2s-1-1.3-2.1-1.3c-2.4,0-2.5,1.8-3.8,1.8a1.347,1.347,0,0,1-1.4-1.3c0-1.3,1.8-2.9,5.2-2.9,3.1,0,5.3,1,5.3,3.3V153Zm-3.3-2.4a3.942,3.942,0,0,1-1.4.5l-1.2.2c-1.4.2-2.1.6-2.1,1.6,0,.7.7,1.3,1.8,1.3a2.643,2.643,0,0,0,2.9-2.4Z" transform="translate(-227.1 -139.8)" fill="#fff"/>
        <path id="Path_14" data-name="Path 14" d="M268.9,154.8c0,1-.4,1.6-1.5,1.6a1.4,1.4,0,0,1-1.5-1.6v-.4h0a4.729,4.729,0,0,1-4,2.1c-2,0-4.1-1-4.1-4.3v-6.3a1.6,1.6,0,0,1,3.2,0v5.7c0,1.3.6,2.3,2.1,2.3a2.555,2.555,0,0,0,2.5-2.6v-5.4a1.424,1.424,0,0,1,1.6-1.6,1.465,1.465,0,0,1,1.6,1.6v8.9Z" transform="translate(-227.1 -139.8)" fill="#fff"/>
        <path id="Path_15" data-name="Path 15" d="M270.6,145.8c0-1,.4-1.6,1.5-1.6s1.5.6,1.5,1.6v.4h0a4.729,4.729,0,0,1,4-2.1c2,0,4.1,1,4.1,4.3v6.3a1.424,1.424,0,0,1-1.6,1.6,1.465,1.465,0,0,1-1.6-1.6V149c0-1.3-.6-2.3-2.1-2.3a2.555,2.555,0,0,0-2.5,2.6v5.4a1.6,1.6,0,0,1-3.2,0v-8.9Z" transform="translate(-227.1 -139.8)" fill="#fff"/>
        <path id="Path_16" data-name="Path 16" d="M284.2,146.6h-.6c-.9,0-1.3-.4-1.3-1.1s.4-1.1,1.3-1.1h.6v-2a1.427,1.427,0,0,1,1.6-1.6,1.472,1.472,0,0,1,1.6,1.6v2h1c1,0,1.5.3,1.5,1.1s-.5,1.1-1.5,1.1h-1v6.5a.736.736,0,0,0,.8.8h.5a1,1,0,0,1,1.1,1.1c0,.9-.8,1.5-2.4,1.5-2.4,0-3.3-1-3.3-2.9v-7h.1Z" transform="translate(-227.1 -139.8)" fill="#fff"/>
        <path id="Path_17" data-name="Path 17" d="M301,153h0l2-7.4a1.708,1.708,0,0,1,1.6-1.5,1.635,1.635,0,0,1,1.7,1.5,4.4,4.4,0,0,1-.2,1l-3.8,10.7c-.8,2.2-1.7,3.4-3.7,3.4-1.5,0-2.1-.7-2.1-1.5,0-.9.6-1.3,1.5-1.3h.3c.4,0,.9,0,1.1-1l-3.4-9.7a4.123,4.123,0,0,1-.4-1.5,1.58,1.58,0,0,1,1.6-1.6,1.658,1.658,0,0,1,1.7,1.2Z" transform="translate(-227.1 -139.8)" fill="#fff"/>
        <path id="Path_18" data-name="Path 18" d="M312.2,144.2c3.9,0,6,2.7,6,6.1,0,3.3-1.6,6.1-6,6.1s-6-2.9-6-6.1C306.1,146.8,308.2,144.2,312.2,144.2Zm0,9.8c1.9,0,2.8-1.7,2.8-3.7,0-2.1-.9-3.7-2.8-3.7s-2.8,1.6-2.8,3.7C309.4,152.3,310.2,154,312.2,154Z" transform="translate(-227.1 -139.8)" fill="#fff"/>
        <path id="Path_19" data-name="Path 19" d="M330.5,154.8c0,1-.4,1.6-1.5,1.6s-1.5-.6-1.5-1.6v-.4h0a4.729,4.729,0,0,1-4,2.1c-2,0-4.1-1-4.1-4.3v-6.3a1.6,1.6,0,0,1,3.2,0v5.7c0,1.3.6,2.3,2.1,2.3a2.555,2.555,0,0,0,2.5-2.6v-5.4a1.6,1.6,0,0,1,3.2,0v8.9Z" transform="translate(-227.1 -139.8)" fill="#fff"/>
        <path id="Path_20" data-name="Path 20" d="M332.3,145.7a1.368,1.368,0,0,1,1.5-1.5,1.415,1.415,0,0,1,1.5,1.5V147h0c.4-1.4,1.1-2.8,2.7-2.8a1.694,1.694,0,0,1,1.8,1.6,1.465,1.465,0,0,1-1.6,1.6h-.6c-1.3,0-2,.9-2,3.6v3.8a1.6,1.6,0,0,1-3.2,0v-9.1h-.1Z" transform="translate(-227.1 -139.8)" fill="#fff"/>
        <path id="Path_21" data-name="Path 21" d="M347.1,146.6h-.6c-.9,0-1.3-.4-1.3-1.1s.4-1.1,1.3-1.1h.6v-2a1.427,1.427,0,0,1,1.6-1.6,1.472,1.472,0,0,1,1.6,1.6v2h1c1,0,1.5.3,1.5,1.1s-.5,1.1-1.5,1.1h-1v6.5a.736.736,0,0,0,.8.8h.5a1,1,0,0,1,1.1,1.1c0,.9-.8,1.5-2.4,1.5-2.4,0-3.3-1-3.3-2.9v-7h.1Z" transform="translate(-227.1 -139.8)" fill="#fff"/>
        <path id="Path_22" data-name="Path 22" d="M364.5,153a12.316,12.316,0,0,0,.3,2.2,1.442,1.442,0,0,1-1.5,1.3,1.731,1.731,0,0,1-1.9-1.9,5.636,5.636,0,0,1-4.5,1.9,3.488,3.488,0,0,1-3.7-3.3c0-2.7,2.1-3.5,4.6-3.8l2-.2c.8-.1,1.4-.3,1.4-1.2s-1-1.3-2.1-1.3c-2.4,0-2.5,1.8-3.8,1.8a1.347,1.347,0,0,1-1.4-1.3c0-1.3,1.8-2.9,5.2-2.9,3.1,0,5.3,1,5.3,3.3V153Zm-3.3-2.4a3.942,3.942,0,0,1-1.4.5l-1.2.2c-1.4.2-2.1.6-2.1,1.6,0,.7.7,1.3,1.8,1.3a2.643,2.643,0,0,0,2.9-2.4v-1.2Z" transform="translate(-227.1 -139.8)" fill="#fff"/>
        <path id="Path_23" data-name="Path 23" d="M366.6,141.4a1.427,1.427,0,0,1,1.6-1.6,1.472,1.472,0,0,1,1.6,1.6v13.4a1.427,1.427,0,0,1-1.6,1.6,1.472,1.472,0,0,1-1.6-1.6Z" transform="translate(-227.1 -139.8)" fill="#fff"/>
        <path id="Path_24" data-name="Path 24" d="M374.5,150.9a2.833,2.833,0,0,0,3,3c2.5,0,2.5-1.6,3.8-1.6a1.321,1.321,0,0,1,1.3,1.3c0,2-3.1,2.9-5.1,2.9-4.6,0-6.3-3.1-6.3-5.9,0-3.8,2.3-6.3,6.2-6.3,3.8,0,5.9,2.7,5.9,5.3,0,1.1-.3,1.4-1.4,1.4h-7.4Zm5.7-1.9a2.8,2.8,0,0,0-2.7-2.6,3.006,3.006,0,0,0-3,2.6Z" transform="translate(-227.1 -139.8)" fill="#fff"/>
        <path id="Path_25" data-name="Path 25" d="M384.5,145.8c0-1,.4-1.6,1.5-1.6a1.4,1.4,0,0,1,1.5,1.6v.4h0a4.729,4.729,0,0,1,4-2.1c2,0,4.1,1,4.1,4.3v6.3a1.6,1.6,0,0,1-3.2,0V149c0-1.3-.6-2.3-2.1-2.3a2.555,2.555,0,0,0-2.5,2.6v5.4a1.6,1.6,0,0,1-3.2,0v-8.9Z" transform="translate(-227.1 -139.8)" fill="#fff"/>
        <path id="Path_26" data-name="Path 26" d="M398.1,146.6h-.6c-.9,0-1.3-.4-1.3-1.1s.4-1.1,1.3-1.1h.6v-2a1.427,1.427,0,0,1,1.6-1.6,1.472,1.472,0,0,1,1.6,1.6v2h1c1,0,1.5.3,1.5,1.1s-.5,1.1-1.5,1.1h-1v6.5a.736.736,0,0,0,.8.8h.5a1,1,0,0,1,1.1,1.1c0,.9-.8,1.5-2.4,1.5-2.4,0-3.3-1-3.3-2.9v-7h.1Z" transform="translate(-227.1 -139.8)" fill="#fff"/>
      </g>
    </g>
  </g>
</svg>
