<?xml version="1.0" encoding="utf-8"?>
<!-- Generator: Adobe Illustrator 22.1.0, SVG Export Plug-In . SVG Version: 6.00 Build 0)  -->
<svg version="1.1" id="Layer_1" xmlns="http://www.w3.org/2000/svg" xmlns:xlink="http://www.w3.org/1999/xlink" x="0px" y="0px"
	 viewBox="0 0 102 34.5" style="enable-background:new 0 0 102 34.5;" xml:space="preserve">
<style type="text/css">
	.st0{fill:#FFFFFF;}
	.st1{clip-path:url(#SVGID_2_);}
	.st2{clip-path:url(#SVGID_4_);fill:#FFFFFF;}
	.st3{display:none;clip-path:url(#SVGID_6_);}
	.st4{display:inline;fill:#FFFFFF;}
	.st5{fill:#E15E2E;}
	.st6{clip-path:url(#SVGID_8_);}
	.st7{clip-path:url(#SVGID_10_);}
</style>
<g>
	<g>
		<path id="XMLID_8_" class="st0" d="M23.9,8.9c-0.3-3.9-3.5-6.9-7.4-6.9c-4.1,0-7.5,3.4-7.5,7.5c0,3.9,3,7.1,6.9,7.4
			C16.1,12.5,19.6,9,23.9,8.9z"/>
	</g>
	<g>
		<defs>
			<path id="SVGID_1_" d="M23.9,8.9c-0.3-3.9-3.5-6.9-7.4-6.9c-4.1,0-7.5,3.4-7.5,7.5c0,3.9,3,7.1,6.9,7.4
				C16.1,12.5,19.6,9,23.9,8.9z"/>
		</defs>
		<use xlink:href="#SVGID_1_"  style="overflow:visible;fill:#E15E2E;"/>
		<clipPath id="SVGID_2_">
			<use xlink:href="#SVGID_1_"  style="overflow:visible;"/>
		</clipPath>
		<g class="st1">
			<g id="Icons_1_">
				<path class="st0" d="M19.4,6.6c-0.5-1.2-1.8-1.8-3-1.3c-0.8,0.3-1.3,1-1.4,1.8c-0.6-0.5-1.5-0.6-2.2-0.3c-1.2,0.5-1.8,1.8-1.3,3
					c0.3,0.6,0.8,1.1,1.4,1.3l4.3,1.8c0.1,0.1,0.2,0.1,0.2,0c0.1-0.1,0.1-0.1,0.2-0.2l1.8-4.3C19.6,8,19.6,7.3,19.4,6.6z"/>
			</g>
		</g>
	</g>
</g>
<g>
	<g>
		<path id="XMLID_7_" class="st0" d="M25.2,24.8c3.9-0.3,6.9-3.5,6.9-7.5c0-4.1-3.4-7.4-7.5-7.4c-3.9,0-7.1,3.1-7.4,7
			C21.5,17,25,20.5,25.2,24.8z"/>
	</g>
	<g>
		<defs>
			<path id="SVGID_3_" d="M25.2,24.8c3.9-0.3,6.9-3.5,6.9-7.5c0-4.1-3.4-7.4-7.5-7.4c-3.9,0-7.1,3.1-7.4,7
				C21.5,17,25,20.5,25.2,24.8z"/>
		</defs>
		<use xlink:href="#SVGID_3_"  style="overflow:visible;fill:#E15E2E;"/>
		<clipPath id="SVGID_4_">
			<use xlink:href="#SVGID_3_"  style="overflow:visible;"/>
		</clipPath>
		<path class="st2" d="M29.6,20c0.1-0.3-0.1-0.6-0.4-0.7c-1.3-0.4-1.9-2.7-2-3.6c0-0.1-0.1-0.2-0.1-0.2C27,15,26.1,14.9,26,14.8
			c-0.2,0-0.2-0.2-0.2-0.2c0.3-0.2,0.5-0.7,0.5-1.2c0-0.7-0.1-1.3-1.1-1.3h-0.1c-1,0-1.1,0.6-1.1,1.3c0,0.5,0.2,1,0.5,1.2
			c0,0.1-0.1,0.2-0.2,0.2c-0.1,0-1.1,0.3-1.3,0.8c0,0,0,0.1-0.1,0.2c0,0-0.1,0.8-0.4,1.7c-0.3,0.7-0.7,1.7-1.5,1.9
			c-0.3,0.1-0.4,0.4-0.4,0.7c0.1,0.2,0.3,0.4,0.5,0.4c-0.5,0.3-0.5,0.6-0.5,0.9c0,0.1,0.1,0.3,0.2,0.5c0.2,0.2,0.5,0.5,1.1,0.5
			c0.1,0,0.2,0,0.3,0c0.4-0.1,0.9-0.1,1.2-0.2c0.2,0,0.3-0.1,0.4-0.1c0.2-0.1,0.5-0.1,1.1-0.1h0.2c0.5,0,0.9,0.1,1.1,0.1
			c0.2,0,0.3,0.1,0.4,0.1c0.4,0.1,0.8,0.1,1.2,0.2c0.1,0,0.2,0,0.3,0c0.6,0,1-0.3,1.1-0.5s0.2-0.5,0.2-0.5c0-0.2-0.1-0.6-0.5-0.9
			l0,0C29.4,20.4,29.6,20.2,29.6,20z M23.2,19.9C22.9,20,22.9,20,22.6,20c-0.1,0-0.2,0-0.3,0.1c-0.1,0-0.2,0.1-0.3,0.1
			c0.7-0.4,1.3-1.2,1.7-2.2c0,0.2,0.1,0.4,0.1,0.7C23.7,19.4,23.3,19.9,23.2,19.9z M28.1,20.1c-0.1,0-0.2-0.1-0.3-0.1
			c-0.7-0.1-1.1-0.6-1.1-1.4c0-0.3,0-0.5,0.1-0.7c0.4,1.1,1,1.9,1.8,2.3C28.4,20.1,28.3,20.1,28.1,20.1z"/>
	</g>
	<g>
		<defs>
			<path id="SVGID_5_" d="M25.2,24.8c3.9-0.3,6.9-3.5,6.9-7.5c0-4.1-3.4-7.4-7.5-7.4c-3.9,0-7.1,3.1-7.4,7
				C21.5,17,25,20.5,25.2,24.8z"/>
		</defs>
		<clipPath id="SVGID_6_">
			<use xlink:href="#SVGID_5_"  style="overflow:visible;"/>
		</clipPath>
		<g class="st3">
			<path class="st4" d="M27.8,20.7c-0.1,0-0.2-0.1-0.3-0.1c-0.2-0.1-0.3-0.1-0.5-0.1c-0.1-0.1-0.4-0.4-0.4-1.1c0-0.9,0.2-1.7,0.3-2
				v-0.1c0-0.1,0.1-0.4,0.1-0.4c0.1-0.2,0.1-0.3,0.2-0.5l0,0c0.1-0.3,0.3-1.2,0.3-2.5c0-0.1-0.1-0.3-0.2-0.3c0,0,0,0-0.1-0.1
				s-0.2-0.2-0.3-0.3c-0.1-0.1-0.2-0.2-0.2-0.2c-0.1-0.2-0.3-0.3-0.4-0.4c-0.2-0.2-0.3-0.3-0.5-0.5c-0.2-0.3-0.4-0.7-0.4-1.1
				c0-0.1,0-0.1-0.1-0.1c-0.1-0.1-0.1-0.1-0.1-0.1c-0.1,0-0.1,0-0.1,0.1c-0.1,0.1-0.1,0.1-0.1,0.1c0.1,0.4-0.2,0.8-0.4,1.1
				c-0.2,0.2-0.3,0.3-0.5,0.5c-0.1,0.1-0.3,0.3-0.4,0.4c-0.1,0.1-0.2,0.2-0.2,0.2c-0.1,0.1-0.2,0.2-0.3,0.3c0,0,0,0-0.1,0.1
				s-0.2,0.2-0.2,0.3c0,1.3,0.2,2.2,0.3,2.5l0,0c0.1,0.2,0.1,0.4,0.2,0.5c0,0,0.1,0.3,0.1,0.4c0,0.1,0,0.1,0,0.1
				c0.1,0.3,0.3,1.1,0.3,2c0,0.7-0.3,1-0.4,1.1c-0.2,0.1-0.3,0.1-0.5,0.1c-0.1,0-0.2,0-0.3,0.1c-1.1,0.1-1.2,0.6-1.2,0.9
				c0,0.1,0.1,0.3,0.2,0.4s0.4,0.4,0.9,0.4c0.1,0,0.2,0,0.2,0c0.3-0.1,0.6-0.1,1-0.2c0.1,0,0.2-0.1,0.4-0.1s0.4-0.1,0.9-0.1h0.1
				c0,0,0,0,0.1,0c0.4,0,0.7,0,0.9,0.1c0.1,0,0.2,0.1,0.4,0.1c0.3,0.1,0.6,0.1,1,0.2c0.1,0,0.2,0,0.2,0c0.5,0,0.7-0.2,0.9-0.4
				s0.2-0.4,0.2-0.4C29,21.4,28.9,20.9,27.8,20.7L27.8,20.7z M26.1,16.3C26.1,16.3,26,16.3,26.1,16.3c-0.1-0.1-0.2-0.1-0.2-0.2
				c0.3-0.2,0.4-0.5,0.4-0.9c0-0.6-0.1-1-0.9-1s-0.9,0.5-0.9,1c0,0.4,0.2,0.7,0.4,0.9c0,0.1-0.1,0.1-0.1,0.2h-0.1
				c-0.2,0-0.4-0.4-0.4-0.5c-0.1-0.3-0.2-0.6-0.2-1.3l0,0c0-0.1,0.2-0.5,0.2-0.5c0.1-0.1,0.5-0.7,0.6-1c0.1-0.1,0.3-0.4,0.4-0.5
				c0.1,0.2,0.4,0.5,0.4,0.5c0.2,0.2,0.6,0.9,0.6,1c0,0.1,0.2,0.4,0.2,0.5l0,0c0,0.6-0.2,1-0.2,1.3C26.4,15.9,26.2,16.3,26.1,16.3
				L26.1,16.3z"/>
		</g>
	</g>
</g>
<g>
	<g>
		<path id="XMLID_6_" class="st5" d="M9.2,26.3c0.4,3.8,3.6,6.9,7.6,6.8c4.1-0.1,7.4-3.5,7.3-7.6c-0.1-3.9-3.2-7.1-7-7.3
			C17,22.5,13.6,26.1,9.2,26.3z"/>
	</g>
	<g>
		<defs>
			<path id="SVGID_7_" d="M9.2,26.3c0.4,3.8,3.6,6.9,7.6,6.8c4.1-0.1,7.4-3.5,7.3-7.6c-0.1-3.9-3.2-7.1-7-7.3
				C17,22.5,13.6,26.1,9.2,26.3z"/>
		</defs>
		<use xlink:href="#SVGID_7_"  style="overflow:visible;fill:#E15E2E;"/>
		<clipPath id="SVGID_8_">
			<use xlink:href="#SVGID_7_"  style="overflow:visible;"/>
		</clipPath>
		<g class="st6">
			<g>
				<path class="st0" d="M15,31.3c0.1,0.1,0.1,0.2-0.1,0.3L14.3,32C14.2,32,14.1,32,14,31.9l-2.1-3.8c-0.1-0.2-0.1-0.3,0.1-0.3
					l0.6-0.3c0.1-0.1,0.2-0.1,0.3,0.1L15,31.3z"/>
				<path class="st0" d="M20,26.4c0.1,0.1,0.1,0.2-0.1,0.3l-3.8,2.1c-0.2,0.1-0.3,0.1-0.3-0.1l-0.5-1c-0.1-0.2-0.1-0.3,0.1-0.3
					l3.8-2.1c0.2-0.1,0.3-0.1,0.3,0.1L20,26.4z"/>
				<path class="st0" d="M16.3,30.6c0.1,0.1,0.1,0.2-0.1,0.3l-0.6,0.3c-0.2,0.1-0.3,0.1-0.3-0.1l-2.1-3.8c-0.1-0.1-0.1-0.2,0.1-0.3
					l0.6-0.3c0.1-0.1,0.2-0.1,0.3,0.1L16.3,30.6z"/>
				<path class="st0" d="M22.2,27.1c0.1,0.1,0.1,0.2-0.1,0.3l-0.6,0.3c-0.1,0.1-0.2,0.1-0.3-0.1l-2.1-3.8c-0.1-0.1-0.1-0.2,0.1-0.3
					l0.6-0.3c0.2-0.1,0.3-0.1,0.3,0.1L22.2,27.1z"/>
				<path class="st0" d="M23.5,26.3c0.1,0.2,0.1,0.3-0.1,0.3L22.8,27c-0.1,0.1-0.2,0.1-0.3-0.1l-2.1-3.8c-0.1-0.2-0.1-0.3,0.1-0.3
					l0.6-0.3c0.1-0.1,0.2-0.1,0.3,0.1L23.5,26.3z"/>
			</g>
		</g>
	</g>
</g>
<g>
	<g>
		<path id="XMLID_5_" class="st5" d="M7.8,10.2C4,10.5,0.9,13.7,1,17.7c0.1,4.1,3.4,7.4,7.5,7.4c3.9-0.1,7.1-3.1,7.4-7
			C11.6,18,8,14.5,7.8,10.2z"/>
	</g>
	<g>
		<defs>
			<path id="SVGID_9_" d="M7.8,10.2C4,10.5,0.9,13.7,1,17.7c0.1,4.1,3.4,7.4,7.5,7.4c3.9-0.1,7.1-3.1,7.4-7C11.6,18,8,14.5,7.8,10.2
				z"/>
		</defs>
		<use xlink:href="#SVGID_9_"  style="overflow:visible;fill:#E15E2E;"/>
		<clipPath id="SVGID_10_">
			<use xlink:href="#SVGID_9_"  style="overflow:visible;"/>
		</clipPath>
		<g class="st7">
			<path class="st0" d="M8.1,15.1c-0.8-0.4-1.7-0.4-2.5-0.1l0,0c-0.9,0.3-1.5,0.9-1.9,1.7c-0.4,0.8-0.4,1.7-0.2,2.5
				c0.3,0.9,0.9,1.5,1.7,1.9c0.6,0.3,1.1,0.9,1.3,1.5L7,23.8c0.1,0.3,0.4,0.4,0.6,0.4l0.1,0.2c0.1,0.3,0.5,0.5,0.8,0.4l1-0.4
				c0.3-0.1,0.5-0.5,0.4-0.8l-0.1-0.2c0.2-0.2,0.3-0.4,0.3-0.7l-0.5-1.3c-0.2-0.7-0.2-1.4,0.1-2.1c0.3-0.8,0.4-1.7,0.1-2.5
				C9.5,16.1,8.9,15.4,8.1,15.1z M9.5,23.8c0.1,0.1,0,0.3-0.2,0.3l-1,0.4c-0.1,0.1-0.3,0-0.3-0.2L8,24.2l1.4-0.5L9.5,23.8z
				 M9.2,21.5L9.2,21.5c0,0-0.1,0.1-0.2,0.1H8.9l-1.8,0.6H7.1c-0.1,0.1-0.2,0.1-0.2,0.1l-0.1-0.2l2.3-0.8L9.2,21.5z"/>
			<path class="st5" d="M8.3,18.3L8.3,18.3c-0.1-0.3-0.5-0.5-0.7-0.4S7,18.3,7.1,18.6l0.1,0.2l-0.6,0.2l-0.1-0.2
				c-0.1-0.3-0.4-0.5-0.7-0.4H5.7c-0.3,0.1-0.5,0.4-0.4,0.7v0.1c0.1,0.3,0.4,0.5,0.7,0.4l0.2-0.1L7.2,22l0.4-0.2l-0.9-2.4l0.6-0.2
				l0.9,2.4l0.4-0.2l-0.9-2.4L7.8,19C8.2,18.9,8.4,18.6,8.3,18.3z M6.3,19.2l-0.2,0.1c-0.1,0.1-0.2,0-0.2-0.1v-0.1
				c-0.1-0.1,0-0.2,0.1-0.2H6c0.1-0.1,0.2,0,0.2,0.1L6.3,19.2z M7.9,18.4c0.1,0.1,0,0.2-0.1,0.2l-0.2,0.1l-0.1-0.2
				c-0.1-0.1,0-0.2,0.1-0.2C7.7,18.2,7.8,18.3,7.9,18.4L7.9,18.4z"/>
		</g>
	</g>
</g>
<g>
	<path class="st0" d="M43.5,20l1.3-7c0-0.2,0.1-0.5,0.3-0.7c0.1-0.2,0.3-0.4,0.5-0.5c0.2-0.1,0.4-0.2,0.6-0.3c0.2,0,0.5,0,0.7,0
		l0.5,0.1l-2.3,10.4c0,0.2-0.1,0.3-0.2,0.5c-0.1,0.1-0.2,0.3-0.3,0.4s-0.3,0.2-0.4,0.2c-0.2,0.1-0.3,0.1-0.5,0.1
		c-0.2,0-0.3,0-0.5-0.1s-0.3-0.1-0.4-0.2c-0.1-0.1-0.2-0.2-0.3-0.4c-0.1-0.1-0.2-0.3-0.2-0.5l-1.6-6.6l-1.6,6.6
		c0,0.2-0.1,0.3-0.2,0.5s-0.2,0.3-0.3,0.4c-0.1,0.1-0.3,0.2-0.4,0.2c-0.2,0.1-0.3,0.1-0.5,0.1s-0.3,0-0.5-0.1
		c-0.2-0.1-0.3-0.1-0.4-0.2s-0.2-0.2-0.3-0.4c-0.1-0.1-0.2-0.3-0.2-0.5l-2.3-10.4l0.5-0.1c0.2-0.1,0.5-0.1,0.7,0
		c0.2,0,0.5,0.1,0.6,0.3s0.4,0.3,0.5,0.5c0.1,0.2,0.2,0.4,0.3,0.7l1.4,7l1.7-7.3c0-0.1,0.1-0.3,0.2-0.4c0.1-0.1,0.2-0.2,0.3-0.3
		c0.1-0.1,0.2-0.2,0.4-0.2c0.1,0,0.3-0.1,0.4-0.1c0.2,0,0.3,0,0.4,0.1c0.1,0,0.3,0.1,0.4,0.2c0.1,0.1,0.2,0.2,0.3,0.3
		c0.1,0.1,0.1,0.3,0.2,0.4L43.5,20z"/>
	<path class="st0" d="M55.8,21.7c0,0-0.1,0.1-0.1,0.2c-0.1,0.1-0.1,0.1-0.2,0.2c-0.1,0.1-0.1,0.1-0.2,0.2c-0.1,0.1-0.1,0.1-0.2,0.2
		c-0.1,0.1-0.2,0.2-0.3,0.3c-0.1,0.1-0.2,0.2-0.4,0.2c-0.1,0.1-0.3,0.1-0.4,0.2c-0.2,0.1-0.3,0.1-0.5,0.2c-0.2,0-0.4,0.1-0.5,0.1
		s-0.4,0-0.6,0c-0.7,0-1.3-0.1-1.8-0.3c-0.3-0.1-0.5-0.2-0.7-0.4c-0.2-0.1-0.4-0.3-0.6-0.5c-0.4-0.4-0.6-0.8-0.8-1.3
		c-0.2-0.5-0.3-1-0.3-1.6V19c0-0.3,0-0.6,0.1-0.9c0-0.3,0.1-0.6,0.2-0.8c0.2-0.5,0.5-1,0.8-1.4c0.3-0.4,0.8-0.7,1.3-0.9
		c0.5-0.2,1-0.3,1.7-0.3c0.6,0,1.2,0.1,1.6,0.3c0.2,0.1,0.5,0.2,0.6,0.4c0.2,0.1,0.4,0.3,0.5,0.5c0.2,0.2,0.3,0.4,0.4,0.6
		s0.2,0.5,0.3,0.7c0.1,0.3,0.2,0.7,0.2,1.1v0.4c0,0.2-0.1,0.3-0.1,0.5s-0.2,0.3-0.3,0.4c-0.1,0.1-0.2,0.2-0.4,0.2
		c-0.1,0.1-0.3,0.1-0.5,0.1h-4.1c0,0.1,0.1,0.3,0.1,0.4c0,0.1,0.1,0.2,0.1,0.3c0.1,0.2,0.3,0.4,0.4,0.6c0.2,0.2,0.4,0.3,0.6,0.4
		c0.2,0.1,0.5,0.1,0.8,0.1c0.4,0,0.8-0.1,1.2-0.2c0.2-0.1,0.5-0.2,0.7-0.2c0.2,0,0.4,0,0.5,0c0.2,0,0.3,0.1,0.4,0.1
		c0.1,0.1,0.2,0.1,0.3,0.2L55.8,21.7z M50.6,17.5c0,0.1-0.1,0.2-0.1,0.3c0,0.1-0.1,0.2-0.1,0.4h3.2V18c0-0.2,0-0.4-0.1-0.6
		c-0.1-0.2-0.2-0.4-0.3-0.5c-0.1-0.1-0.3-0.2-0.5-0.3c-0.1,0-0.2-0.1-0.3-0.1c-0.1,0-0.2,0-0.4,0c-0.3,0-0.5,0-0.7,0.1
		c-0.1,0-0.2,0.1-0.3,0.2c-0.1,0.1-0.2,0.1-0.2,0.2C50.8,17.1,50.7,17.3,50.6,17.5z"/>
	<path class="st0" d="M59.8,10.9v11.4c0,0.2,0,0.3-0.1,0.5s-0.1,0.3-0.2,0.4c-0.1,0.1-0.2,0.2-0.4,0.2c-0.1,0.1-0.3,0.1-0.4,0.1
		c-0.2,0-0.3,0-0.4-0.1c-0.1-0.1-0.3-0.1-0.4-0.2c-0.1-0.1-0.2-0.2-0.3-0.4c-0.1-0.1-0.1-0.3-0.1-0.5v-9.6c0-0.2,0-0.5,0.1-0.7
		c0.1-0.2,0.2-0.4,0.4-0.6c0.2-0.2,0.4-0.3,0.6-0.4s0.5-0.1,0.7-0.1H59.8z"/>
	<path class="st0" d="M64.2,10.9v11.4c0,0.2,0,0.3-0.1,0.5S64,23,63.9,23.2c-0.1,0.1-0.2,0.2-0.4,0.2c-0.1,0.1-0.3,0.1-0.4,0.1
		c-0.2,0-0.3,0-0.4-0.1c-0.1-0.1-0.3-0.1-0.4-0.2c-0.1-0.1-0.2-0.2-0.3-0.4c-0.1-0.1-0.1-0.3-0.1-0.5v-9.6c0-0.2,0-0.5,0.1-0.7
		c0.1-0.2,0.2-0.4,0.4-0.6c0.2-0.2,0.4-0.3,0.6-0.4s0.5-0.1,0.7-0.1H64.2z"/>
	<path class="st0" d="M65.9,23.4v-8.8c0.4,0,0.7,0.1,1.1,0.3c0.4,0.2,0.7,0.5,0.9,1c0.3-0.4,0.6-0.7,1.1-1c0.4-0.2,0.9-0.3,1.5-0.3
		c0.2,0,0.4,0,0.6,0c0.2,0,0.4,0.1,0.5,0.1c0.3,0.1,0.6,0.3,0.9,0.6c0.2,0.3,0.4,0.6,0.6,1c0.1,0.2,0.1,0.4,0.1,0.7
		c0,0.3,0,0.5,0,0.8v5.5h-0.4c-0.3,0-0.5,0-0.7-0.1c-0.2-0.1-0.4-0.2-0.6-0.4c-0.2-0.2-0.3-0.4-0.4-0.6C71,22.1,71,21.8,71,21.6
		l0-3.6c0-0.1,0-0.3,0-0.4s0-0.2-0.1-0.3c-0.1-0.2-0.1-0.3-0.3-0.4c-0.1-0.1-0.3-0.2-0.4-0.2c-0.2,0-0.3-0.1-0.5-0.1
		c-0.4,0-0.6,0.1-0.9,0.3c-0.2,0.2-0.4,0.4-0.5,0.7v2.1c0,0.6,0,1.3,0,2.1c0,0.2,0,0.5-0.1,0.7c-0.1,0.2-0.2,0.4-0.4,0.5
		c-0.2,0.2-0.3,0.3-0.5,0.4c-0.2,0.1-0.4,0.1-0.7,0.1H65.9z"/>
	<path class="st0" d="M82.3,21.7c0,0-0.1,0.1-0.1,0.2C82.1,22,82.1,22,82,22.1c-0.1,0.1-0.1,0.1-0.2,0.2c-0.1,0.1-0.1,0.1-0.2,0.2
		c-0.1,0.1-0.2,0.2-0.3,0.3c-0.1,0.1-0.2,0.2-0.4,0.2c-0.1,0.1-0.3,0.1-0.4,0.2c-0.2,0.1-0.3,0.1-0.5,0.2s-0.4,0.1-0.5,0.1
		s-0.4,0-0.6,0c-0.7,0-1.3-0.1-1.8-0.3c-0.3-0.1-0.5-0.2-0.7-0.4s-0.4-0.3-0.6-0.5c-0.4-0.4-0.6-0.8-0.8-1.3c-0.2-0.5-0.3-1-0.3-1.6
		V19c0-0.3,0-0.6,0.1-0.9c0-0.3,0.1-0.6,0.2-0.8c0.2-0.5,0.5-1,0.8-1.4c0.3-0.4,0.8-0.7,1.3-0.9c0.5-0.2,1-0.3,1.7-0.3
		s1.2,0.1,1.6,0.3c0.2,0.1,0.5,0.2,0.6,0.4c0.2,0.1,0.4,0.3,0.5,0.5c0.2,0.2,0.3,0.4,0.4,0.6c0.1,0.2,0.2,0.5,0.3,0.7
		c0.1,0.3,0.2,0.7,0.2,1.1v0.4c0,0.2-0.1,0.3-0.1,0.5s-0.2,0.3-0.3,0.4c-0.1,0.1-0.2,0.2-0.4,0.2c-0.1,0.1-0.3,0.1-0.5,0.1h-4.1
		c0,0.1,0.1,0.3,0.1,0.4c0,0.1,0.1,0.2,0.1,0.3c0.1,0.2,0.3,0.4,0.4,0.6c0.2,0.2,0.4,0.3,0.6,0.4c0.2,0.1,0.5,0.1,0.8,0.1
		c0.4,0,0.8-0.1,1.2-0.2c0.2-0.1,0.5-0.2,0.7-0.2c0.2,0,0.4,0,0.5,0c0.2,0,0.3,0.1,0.4,0.1s0.2,0.1,0.3,0.2L82.3,21.7z M77.1,17.5
		c0,0.1-0.1,0.2-0.1,0.3c0,0.1-0.1,0.2-0.1,0.4h3.2V18c0-0.2,0-0.4-0.1-0.6c-0.1-0.2-0.2-0.4-0.3-0.5c-0.1-0.1-0.3-0.2-0.5-0.3
		c-0.1,0-0.2-0.1-0.3-0.1c-0.1,0-0.2,0-0.4,0c-0.3,0-0.5,0-0.7,0.1c-0.1,0-0.2,0.1-0.3,0.2c-0.1,0.1-0.2,0.1-0.2,0.2
		C77.3,17.1,77.2,17.3,77.1,17.5z"/>
	<path class="st0" d="M90.6,19.8c0.2,0.3,0.3,0.7,0.3,1.1c0,0.4-0.1,0.7-0.3,1c-0.2,0.3-0.4,0.6-0.7,0.8c-0.2,0.1-0.3,0.2-0.5,0.3
		c-0.2,0.1-0.4,0.2-0.6,0.2c-0.4,0.1-0.9,0.2-1.5,0.2c-0.6,0-1.2-0.1-1.6-0.3c-0.2-0.1-0.4-0.2-0.6-0.3c-0.2-0.1-0.4-0.2-0.5-0.4
		c-0.2-0.2-0.3-0.4-0.5-0.6c-0.1-0.2-0.2-0.4-0.3-0.6c-0.1-0.2-0.1-0.3-0.1-0.5c0-0.1,0-0.3,0-0.4l0-1H84c0.3,0,0.5,0,0.7,0.1
		c0.2,0.1,0.4,0.2,0.6,0.4c0.2,0.2,0.3,0.5,0.4,0.8c0,0.1,0,0.1,0,0.2c0,0.1,0,0.1,0.1,0.1c0.1,0.2,0.2,0.3,0.3,0.4
		c0.1,0.1,0.3,0.2,0.5,0.2c0.2,0,0.4,0.1,0.6,0.1c0.4,0,0.8-0.1,1-0.3c0.2-0.2,0.3-0.4,0.3-0.6c0-0.1,0-0.2-0.1-0.3
		c0-0.1-0.1-0.2-0.3-0.3c-0.1,0-0.1-0.1-0.2-0.1c-0.1,0-0.2-0.1-0.3-0.1c-0.1,0-0.2-0.1-0.4-0.1S87,20,86.8,19.9
		c-0.2,0-0.4-0.1-0.6-0.2c-0.2-0.1-0.4-0.1-0.6-0.2c-0.2-0.1-0.4-0.2-0.5-0.2c-0.2-0.1-0.3-0.2-0.5-0.3c-0.1-0.1-0.2-0.2-0.4-0.3
		c-0.1-0.1-0.2-0.3-0.3-0.4c-0.2-0.3-0.2-0.6-0.2-1c0-0.3,0.1-0.7,0.2-1c0.2-0.3,0.4-0.6,0.7-0.8c0.3-0.2,0.7-0.4,1.1-0.6
		c0.4-0.1,0.9-0.2,1.4-0.2c0.6,0,1.1,0.1,1.5,0.2c0.2,0.1,0.4,0.2,0.6,0.3c0.2,0.1,0.4,0.2,0.5,0.3c0.3,0.2,0.5,0.5,0.7,0.9
		c0.2,0.3,0.2,0.7,0.3,1v1.1h-0.5c-0.3,0-0.6-0.1-0.8-0.2c-0.2-0.1-0.5-0.3-0.6-0.5c0,0-0.1-0.1-0.1-0.1c0-0.1-0.1-0.1-0.1-0.2
		c0-0.1-0.1-0.1-0.1-0.2c0-0.1,0-0.1-0.1-0.2c0-0.1-0.1-0.2-0.1-0.3c-0.1-0.1-0.1-0.2-0.3-0.3c-0.1-0.1-0.3-0.2-0.4-0.2
		s-0.3,0-0.6,0c-0.4,0-0.7,0.1-0.9,0.3C86.1,16.7,86,17,86,17.2c0,0.1,0,0.2,0.1,0.3c0,0.1,0.1,0.2,0.3,0.3c0.1,0,0.1,0.1,0.2,0.1
		s0.2,0.1,0.3,0.1c0.1,0,0.2,0.1,0.3,0.1c0.1,0,0.3,0.1,0.4,0.1c0.5,0.1,0.9,0.2,1.3,0.3c0.2,0.1,0.4,0.1,0.6,0.2
		c0.2,0.1,0.3,0.2,0.5,0.3c0.1,0.1,0.3,0.2,0.4,0.3C90.4,19.6,90.5,19.7,90.6,19.8z"/>
	<path class="st0" d="M99.1,19.8c0.2,0.3,0.3,0.7,0.3,1.1c0,0.4-0.1,0.7-0.3,1c-0.2,0.3-0.4,0.6-0.7,0.8c-0.2,0.1-0.3,0.2-0.5,0.3
		c-0.2,0.1-0.4,0.2-0.6,0.2c-0.4,0.1-0.9,0.2-1.5,0.2c-0.6,0-1.2-0.1-1.6-0.3c-0.2-0.1-0.4-0.2-0.6-0.3c-0.2-0.1-0.4-0.2-0.5-0.4
		c-0.2-0.2-0.3-0.4-0.5-0.6c-0.1-0.2-0.2-0.4-0.3-0.6c-0.1-0.2-0.1-0.3-0.1-0.5c0-0.1,0-0.3,0-0.4l0-1h0.5c0.3,0,0.5,0,0.7,0.1
		c0.2,0.1,0.4,0.2,0.6,0.4c0.2,0.2,0.3,0.5,0.4,0.8c0,0.1,0,0.1,0,0.2c0,0.1,0,0.1,0.1,0.1c0.1,0.2,0.2,0.3,0.3,0.4
		c0.1,0.1,0.3,0.2,0.5,0.2c0.2,0,0.4,0.1,0.6,0.1c0.4,0,0.8-0.1,1-0.3c0.2-0.2,0.3-0.4,0.3-0.6c0-0.1,0-0.2-0.1-0.3
		c0-0.1-0.1-0.2-0.3-0.3c-0.1,0-0.1-0.1-0.2-0.1c-0.1,0-0.2-0.1-0.3-0.1c-0.1,0-0.2-0.1-0.4-0.1s-0.3-0.1-0.5-0.1
		c-0.2,0-0.4-0.1-0.6-0.2c-0.2-0.1-0.4-0.1-0.6-0.2c-0.2-0.1-0.4-0.2-0.5-0.2c-0.2-0.1-0.3-0.2-0.5-0.3c-0.1-0.1-0.2-0.2-0.4-0.3
		c-0.1-0.1-0.2-0.3-0.3-0.4c-0.2-0.3-0.2-0.6-0.2-1c0-0.3,0.1-0.7,0.2-1c0.2-0.3,0.4-0.6,0.7-0.8c0.3-0.2,0.7-0.4,1.1-0.6
		c0.4-0.1,0.9-0.2,1.4-0.2c0.6,0,1.1,0.1,1.5,0.2c0.2,0.1,0.4,0.2,0.6,0.3c0.2,0.1,0.4,0.2,0.5,0.3c0.3,0.2,0.5,0.5,0.7,0.9
		c0.2,0.3,0.2,0.7,0.3,1v1.1h-0.5c-0.3,0-0.6-0.1-0.8-0.2c-0.2-0.1-0.5-0.3-0.6-0.5c0,0-0.1-0.1-0.1-0.1c0-0.1-0.1-0.1-0.1-0.2
		c0-0.1-0.1-0.1-0.1-0.2c0-0.1,0-0.1-0.1-0.2c0-0.1-0.1-0.2-0.1-0.3c-0.1-0.1-0.1-0.2-0.3-0.3c-0.1-0.1-0.3-0.2-0.4-0.2
		s-0.3,0-0.6,0c-0.4,0-0.7,0.1-0.9,0.3c-0.2,0.2-0.3,0.4-0.3,0.7c0,0.1,0,0.2,0.1,0.3c0,0.1,0.1,0.2,0.3,0.3c0.1,0,0.1,0.1,0.2,0.1
		s0.2,0.1,0.3,0.1c0.1,0,0.2,0.1,0.3,0.1c0.1,0,0.3,0.1,0.4,0.1c0.5,0.1,0.9,0.2,1.3,0.3c0.2,0.1,0.4,0.1,0.6,0.2
		c0.2,0.1,0.3,0.2,0.5,0.3c0.1,0.1,0.3,0.2,0.4,0.3C98.9,19.6,99,19.7,99.1,19.8z"/>
</g>
</svg>
